<?xml version="1.0" encoding="UTF-8"?>
<session version="1.0">
<refactoring comment="Rename package &apos;com.mindstix.bankapplicationapi&apos; to &apos;com.mindstix.zipkinserver&apos;&#x0A;- Original project: &apos;ZipkinServer&apos;&#x0A;- Original element: &apos;ZipkinServer/src/main/java/com.mindstix.bankapplicationapi&apos;&#x0A;- Renamed element: &apos;ZipkinServer/src/main/java/com.mindstix.zipkinserver&apos;&#x0A;- Update references to refactored element&#x0A;- Update textual occurrences in comments and strings" description="Rename package &apos;com.mindstix.bankapplicationapi&apos;" flags="589830" hierarchical="false" id="org.eclipse.jdt.ui.rename.package" input="/src\/main\/java&lt;com.mindstix.bankapplicationapi" name="com.mindstix.zipkinserver" qualified="false" references="true" stamp="1575550227811" textual="false" version="1.0"/>
</session>