<?xml version="1.0" encoding="UTF-8"?>
<session version="1.0">
<refactoring comment="Rename package &apos;com.example.demo&apos; to &apos;com.mindstix.print&apos;&#x0A;- Original project: &apos;Print&apos;&#x0A;- Original element: &apos;Print/src/main/java/com.example.demo&apos;&#x0A;- Renamed element: &apos;Print/src/main/java/com.mindstix.print&apos;&#x0A;- Update references to refactored element&#x0A;- Update textual occurrences in comments and strings" description="Rename package &apos;com.example.demo&apos;" flags="589830" hierarchical="false" id="org.eclipse.jdt.ui.rename.package" input="/src\/main\/java&lt;com.example.demo" name="com.mindstix.print" qualified="false" references="true" stamp="1572681063877" textual="false" version="1.0"/>
</session>