<?xml version="1.0" encoding="UTF-8"?>
<session version="1.0">
<refactoring accessors="true" comment="Delete element from project &apos;Assignment1&apos;&#x0A;- Original project: &apos;Assignment1&apos;&#x0A;- Original element: &apos;Test.java&apos;" description="Delete element" element1="/src&lt;{Test.java" elements="1" flags="589830" id="org.eclipse.jdt.ui.delete" resources="0" stamp="1570695223710" subPackages="false" version="1.0"/>
</session>